{
  "ITR_AllConstants_AssessmentYear" : "",
  "ITR_AllConstants_ITR1_Const_Max_44AD_PresumptiveIn" : "20000000",
  "ITR_AllConstants_ITR4_Const_Max_44ADA_PresumptiveInc" : "5000000",
  "ITR_AllConstants_ITR1_Const_Max_STD_Ded_16ia" : "50000",
  "ITR_AllConstants_ITR1_Const_Max_Entertainment_Allow_16ii" : "5000",
  "ITR_AllConstants_ITR1_Const_Max_Professional_TAX" : "5000",
  "ITR_AllConstants_select_an_ITR" : "",
  "ITR_AllConstants_ITR4_Constant_min_Amt_perMt_WG" : "7500",
  "ITR_AllConstants_AdvanceSelfAssessmentYr" : "01-Apr-2020",
  "ITR_AllConstants_ITR1_financialYearStartDate" : "01/04/2019",
  "ITR_AllConstants_ITR1_financialYearDueDate" : "01/12/2020",
  "ITR_AllConstants_ITR1_financialYearEndDate" : "01/04/2020",
  "ITR_AllConstants_ITR_14digitMax" : "99999999999999",
  "ITR_AllConstants_FormType" : "",
  "ITR_AllConstants_FormName" : "",
  "ITR_AllConstants_ConstGrossWt44AE" : "12",
  "ITR_AllConstants_ConstTenure44AE" : "12",
  "ITR_AllConstants_ConstDeathAllwnce1010" : "2000000",
  "ITR_AllConstants_ConstDeposit" : "10000000",
  "ITR_AllConstants_ConstTravelExpenditure" : "200000",
  "ITR_AllConstants_ConstElectricityExpenditure" : "100000",
  "ITR_AllConstants_ConstDateofOriginalReturn" : "01-Apr-2020",
  "ITR_AllConstants_ConstDateofNoticeorOrder" : "01-Apr-2020",
  "ITR_AllConstants_ConstTaxLiabilityTIRebateSlab5l" : "500000",
  "ITR_AllConstants_ConstTaxSlabPercentage10l" : "1000000",
  "ITR_AllConstants_ConstTaxLiabilityTotalIncome50l" : "5000000",
  "ITR_AllConstants_ConstTotalliabilityupto5lAge60" : "60",
  "ITR_AllConstants_ConstTotalliabilityupto5lAge80" : "80",
  "ITR_AllConstants_ConstSection80DDDisability" : "75000",
  "ITR_AllConstants_ConstSection80DDSevereDisability" : "125000",
  "ITR_AllConstants_ConstSection80DDBDisability" : "40000",
  "ITR_AllConstants_ConstSection80DDBSevereDisability" : "100000",
  "ITR_AllConstants_ConstSection80UDisability" : "75000",
  "ITR_AllConstants_ConstSection80USevereDisability" : "125000",
  "ITR_AllConstants_ConstSection80EEA" : "150000",
  "ITR_AllConstants_ConstSection80EE" : "50000",
  "ITR_AllConstants_ConstSection80EEB" : "150000",
  "ITR_AllConstants_ConstSection80GG" : "60000",
  "ITR_AllConstants_ConstSection80C" : "150000",
  "ITR_AllConstants_ConstSection80CCD1B" : "50000",
  "ITR_AllConstants_ConstSection80TTB" : "50000",
  "ITR_AllConstants_ConstSection80GGACash" : "10000",
  "ITR_AllConstants_ConstSection80GCash" : "2000",
  "ITR_AllConstants_ConstSection80TTA" : "10000",
  "ITR_AllConstants_ConstDateofDeposit19" : "01-Apr-2019",
  "ITR_AllConstants_Const1010C" : "500000",
  "ITR_AllConstants_Const1010Bii" : "500000",
  "ITR_AllConstants_Const100" : "100",
  "ITR_AllConstants_ConstFAP" : "15000",
  "ITR_AllConstants_ConstAgriculturalIncome" : "5000",
  "ITR_AllConstants_ConstMaxHPLoss" : "-200000",
  "ITR_AllConstants_Const44AEGrsWtGrtThan12" : "1000",
  "ITR_AllConstants_Const44AEGrsWtLessThan12" : "7500",
  "ITR_AllConstants_Const1034" : "1000000",
  "ITR_AllConstants_Const1010Bi" : "500000",
  "ITR_AllConstants_ConstSection80GGHRAAmt" : "",
  "ITR_AllConstants_Constant_age18" : "18",
  "ITR_AllConstants_ConstGrossTotIncome" : "5000000",
  "ITR_AllConstants_ConstIntBrwdCapSelf" : "200000",
  "ITR_AllConstants_ConstTotalTenure44AE" : "120",
  "ITR_AllConstants_MaxRebate87" : "12500",
  "ITR_AllConstants_ConstDOB" : "31-Mar-2020",
  "ITR_AllConstants_Const80DNonSenior" : "25000",
  "ITR_AllConstants_Const80DSeniorCitizen" : "50000",
  "ITR_AllConstants_ConstEligibleAmountOfDedn" : "100000",
  "ITR_AllConstants_Const80DPrevHlthChckUp" : "5000",
  "ITR_AllConstants_AdvanceTaxDate" : "31-Mar-2020",
  "ITR_AllConstants_select_itr" : "",
  "ITR_AllConstants_ConstantDOB" : "2020-04-01",
  "ITR_AllConstants_Taxpaid10rs" : "10",
  "ITR_AllConstants_Cnst_Tenthousandliability" : "10000",
  "ITR_AllConstants_ConstTonnageCapacity" : "100",
  "ITR_AllConstants_ConstSection80DHUF" : "50000",
  "ITR_AllConstants_TotalIncomeAmount" : "5000000",
  "ITR_AllConstants_Age60" : "60",
  "ITR_AllConstants_Age80" : "80",
  "ITR_AllConstants_BusinessEditFlag" : "",
  "ITR_AllConstants_Const1010AA3L" : "300000",
  "ITR_AllConstants_Constant1010AA" : "300000",
  "ITR_AllConstants_ConstantZerofield" : "0",
  "ITR_AllConstants_ConstFAP_VF" : "15001",
  "ITR_AllConstants_ITR1_Const_Max_Entertainment_Allow_16ii_VF" : "5001",
  "ITR_AllConstants_date_of_filing_234f" : ""
}