<?xml version="1.0" encoding="utf-8"?>
<!-- Generator: Adobe Illustrator 16.0.0, SVG Export Plug-In . SVG Version: 6.00 Build 0)  -->
<!DOCTYPE svg PUBLIC "-//W3C//DTD SVG 1.1//EN" "http://www.w3.org/Graphics/SVG/1.1/DTD/svg11.dtd">
<svg version="1.1" id="round-add_circle_outline-24px"
	 xmlns="http://www.w3.org/2000/svg" xmlns:xlink="http://www.w3.org/1999/xlink" x="0px" y="0px" width="18px" height="18px"
	 viewBox="0 0 18 18" enable-background="new 0 0 18 18" xml:space="preserve">
<g id="add" transform="translate(4 4.072)">
	<g id="Group_14579" transform="translate(0 .001)">
		<path id="Path_10708" fill="#9E9E9E" d="M9.254,4.21H5.575V0.531C5.512,0.209,5.221-0.018,4.893-0.001
			C4.564-0.019,4.273,0.208,4.21,0.531V4.21H0.531C0.208,4.274-0.018,4.565,0,4.893c-0.018,0.328,0.208,0.62,0.531,0.683H4.21v3.679
			c0.064,0.322,0.355,0.548,0.683,0.53c0.328,0.018,0.619-0.208,0.683-0.53V5.575h3.678C9.576,5.511,9.803,5.22,9.785,4.892
			C9.803,4.564,9.576,4.274,9.254,4.21z"/>
	</g>
</g>
</svg>
