<svg xmlns="http://www.w3.org/2000/svg" id="baseline-close-24px" width="24" height="24" viewBox="0 0 24 24">
    <defs>
        <style>
            .cls-1{fill:rgba(0,0,0,.54)}.cls-2{fill:none}
        </style>
    </defs>
    <path id="Path_3053" d="M13 5.806L12.194 5 9 8.194 5.806 5 5 5.806 8.194 9 5 12.194l.806.806L9 9.806 12.194 13l.806-.806L9.806 9z" class="cls-1" data-name="Path 3053" transform="translate(3.177 3.177)"/>
    <path id="Path_3054" d="M0 0h24v24H0z" class="cls-2" data-name="Path 3054"/>
</svg>
