<svg xmlns="http://www.w3.org/2000/svg" id="round-expand_more-24px" width="24" height="24" viewBox="0 0 24 24">
    <defs>
        <style>
            .cls-1{fill:none;opacity:.87}.cls-2{fill:rgba(0,0,0,.54)}
        </style>
    </defs>
    <path id="Path_1" d="M24 24H0V0h24z" class="cls-1" data-name="Path 1"/>
    <path id="Path_2" d="M15.88 9.29L12 13.17 8.12 9.29a1 1 0 0 0-1.41 1.41l4.59 4.59a1 1 0 0 0 1.41 0l4.59-4.59a1 1 0 0 0 0-1.41 1.017 1.017 0 0 0-1.42 0z" class="cls-2" data-name="Path 2"/>
</svg>
