<svg xmlns="http://www.w3.org/2000/svg" width="15.997" height="15.997" viewBox="0 0 15.997 15.997">
    <defs>
        <style>
            .cls-1{fill:#cd2026}
        </style>
    </defs>
    <path id="round-error-24px" d="M10 2a8 8 0 1 0 8 8 8 8 0 0 0-8-8zm0 8.8a.8.8 0 0 1-.8-.8V6.8a.8.8 0 1 1 1.6 0V10a.8.8 0 0 1-.8.8zm.8 3.2H9.2v-1.6h1.6z" class="cls-1" transform="translate(-2 -2)"/>
</svg>
