<svg xmlns="http://www.w3.org/2000/svg" id="filter_list-24px" width="24" height="24" viewBox="0 0 24 24">
    <defs>
        <style>
            .cls-1{fill:none}.cls-2{fill:rgba(0,0,0,.6)}
        </style>
    </defs>
    <path id="Path_17964" d="M0 0h24v24H0z" class="cls-1" data-name="Path 17964"/>
    <path id="Path_17965" d="M11 18h2a1 1 0 0 0 0-2h-2a1 1 0 0 0 0 2zM3 7a1 1 0 0 0 1 1h16a1 1 0 0 0 0-2H4a1 1 0 0 0-1 1zm4 6h10a1 1 0 0 0 0-2H7a1 1 0 0 0 0 2z" class="cls-2" data-name="Path 17965"/>
</svg>
