<svg xmlns="http://www.w3.org/2000/svg" id="round-person_add-24px" width="18" height="18" viewBox="0 0 18 18">
    <defs>
        <style>
            .cls-1{fill:none}.cls-2{fill:rgba(0,0,0,.6)}
        </style>
    </defs>
    <path id="Path_30" d="M0 0h18v18H0z" class="cls-1" data-name="Path 30"/>
    <path id="Path_33" d="M15.986 5a1.361 1.361 0 0 0-1.257.878l-4.644 11.417A1.225 1.225 0 0 0 11.15 19a1.162 1.162 0 0 0 1.065-.764l.79-2.036h5.985l.79 2.036a1.162 1.162 0 0 0 1.065.764 1.219 1.219 0 0 0 1.055-1.705L17.255 5.878A1.389 1.389 0 0 0 15.986 5zm-2.238 8.909l2.238-6.389 2.238 6.389z" class="cls-2" data-name="Path 33" transform="translate(-7.714 -2.154)"/>
</svg>
