<svg xmlns="http://www.w3.org/2000/svg" width="28" height="32" viewBox="0 0 28 32">
    <defs>
        <style>
            .cls-1{fill:none}.cls-2{clip-path:url(#clip-path)}.cls-3{fill:#9e75ab}.cls-4{fill:#707070;font-size:20px;font-family:HelveticaNeue,Helvetica Neue}.cls-5{fill:rgba(0,0,0,.6)}.cls-6{fill:#fff;font-size:7.5px;font-family:ArialRoundedMTBold,Arial Rounded MT Bold;letter-spacing:.03em}
        </style>
        <clipPath id="clip-path">
            <path id="Rectangle_3418" d="M0 0h28v32H0z" class="cls-1" data-name="Rectangle 3418" transform="translate(447 461)"/>
        </clipPath>
    </defs>
    <g id="JSON" transform="translate(-1007 -394)">
        <g id="Group_34" class="cls-2" data-name="Group 34" transform="translate(560 -67)">
            <g id="Group_12630" data-name="Group 12630" transform="translate(447 461)">
                <g id="Group_12629" data-name="Group 12629" transform="translate(0 15)">
                    <path id="Path_8708" d="M41.75 140.625h-22a1 1 0 0 0-1 1v10a1 1 0 0 0 1 1h22a1 1 0 0 0 1-1v-10a1 1 0 0 0-1-1z" class="cls-3" data-name="Path 8708" transform="translate(-18.75 -140.625)"/>
                    <text id="Enter_your_12_digit_Aadhaar_number" class="cls-4" data-name="Enter your 12 digit Aadhaar number" transform="translate(-129 -175)">
                        <tspan x="0" y="19">Enter your 12 digit Aadhaar </tspan><tspan x="0" y="43">number</tspan>
                    </text>
                </g>
                <path id="Path_8709" d="M79.25 7.586L72.664 1a3.739 3.739 0 0 0-2.414-1h-11a3 3 0 0 0-3 3v10a1 1 0 0 0 2 0V3a1 1 0 0 1 1-1h9a2 2 0 0 1 2 2v3.75A2.257 2.257 0 0 0 72.5 10h3.75a2 2 0 0 1 2 2v17a1 1 0 0 1-1 1h-18a1 1 0 0 1-1-1 1 1 0 1 0-2 0 3 3 0 0 0 3 3h18a3 3 0 0 0 3-3V10a3.744 3.744 0 0 0-1-2.414z" class="cls-5" data-name="Path 8709" transform="translate(-52.25)"/>
            </g>
            <text id="JSON-2" class="cls-6" data-name="JSON" transform="translate(448 485)">
                <tspan x="0" y="0">JSON</tspan>
            </text>
        </g>
    </g>
</svg>
