<svg xmlns="http://www.w3.org/2000/svg" id="Component_153_1" width="24" height="24" data-name="Component 153 – 1" viewBox="0 0 24 24">
    <defs>
        <style>
            .cls-1{fill:#218737}
        </style>
    </defs>
    <path id="Path_10710" d="M14 2a12 12 0 1 0 12 12A12 12 0 0 0 14 2zm-3.252 17.148L6.44 14.84a1.2 1.2 0 1 1 1.692-1.692L11.6 16.6l8.256-8.256a1.2 1.2 0 0 1 1.692 1.692l-9.108 9.112a1.2 1.2 0 0 1-1.692 0z" class="cls-1" data-name="Path 10710" transform="translate(-2 -2)"/>
</svg>
