<svg xmlns="http://www.w3.org/2000/svg" width="16" height="14.275" viewBox="0 0 16 14.275">
    <defs>
        <style>
            .cls-1{fill:#bc460b}
        </style>
    </defs>
    <path id="round-warning-24px" d="M4.148 18.267h12.64a1.678 1.678 0 0 0 1.452-2.518L11.921 4.83a1.678 1.678 0 0 0-2.9 0L2.7 15.749a1.678 1.678 0 0 0 1.452 2.518zm6.32-5.875a.842.842 0 0 1-.839-.839V9.874a.839.839 0 0 1 1.679 0v1.679a.842.842 0 0 1-.839.839zm.839 3.357H9.629v-1.678h1.679z" class="cls-1" transform="translate(-2.469 -3.992)"/>
</svg>
